<?xml version="1.0" encoding="UTF-8"?>
<svg width="64px" height="64px" viewBox="0 0 64 64" version="1.1" xmlns="http://www.w3.org/2000/svg" xmlns:xlink="http://www.w3.org/1999/xlink">
    <!-- Generator: Sketch 48.2 (47327) - http://www.bohemiancoding.com/sketch -->
    <title>file-doc</title>
    <desc>Created with Sketch.</desc>
    <defs></defs>
    <g id="UI-kit" stroke="none" stroke-width="1" fill="none" fill-rule="evenodd">
        <g id="file-doc" fill="#72808D">
            <path d="M12,4 L44,4 C45.1045695,4 46,4.8954305 46,6 L46,12 C46,13.1045695 46.8954305,14 48,14 L54,14 C55.1045695,14 56,14.8954305 56,16 L56,56 C56,58.209139 54.209139,60 52,60 L12,60 C9.790861,60 8,58.209139 8,56 L8,8 C8,5.790861 9.790861,4 12,4 Z M48,5.41421356 C48,5.14899707 48.1053568,4.89464316 48.2928932,4.70710678 C48.6834175,4.31658249 49.3165825,4.31658249 49.7071068,4.70710678 L55.2928949,10.2928949 C55.4804311,10.4804311 55.5857879,10.7347847 55.5857881,11.000001 C55.5857885,11.5522857 55.1380736,12.0000013 54.5857888,12.0000017 L48.9999993,12.0000062 C48.4477146,12.0000062 47.9999993,11.552291 47.9999993,11.0000062 L48,5.41421356 Z M38.6319544,32.4193392 L24.6725972,45.4467042 C23.152433,46.8653751 20.7846708,46.9544214 19.3828696,45.646211 C17.9818567,44.3387364 18.0774889,42.1273846 19.5966494,40.7096505 L35.8774076,25.5158722 C38.6824862,22.8980738 42.7544739,22.455407 44.9741066,24.5268466 C47.1946952,26.5991783 46.7218365,30.3961383 43.9143249,33.0162072 L32.1064072,44.0357729 L33.7757194,45.6359477 L45.6063075,34.5952251 C49.3498606,31.1016093 49.8198788,25.8910565 46.6660891,22.9478287 C43.5116061,20.0039537 37.9245158,20.4474027 34.185425,23.9368543 L17.9046668,39.1306326 C15.4517777,41.4197553 15.3547465,45.0450602 17.690887,47.225229 C20.0275411,49.4058771 23.910372,49.3160754 26.3645798,47.0257221 L40.323937,33.9983571 C41.8354734,32.5877381 41.8396457,30.2862555 40.3211544,28.8691458 C38.8057529,27.4549197 36.341948,27.4508735 34.8249935,28.866549 L25.3048087,37.7511215 L26.9967913,39.3301394 L36.5169761,30.4455669 C37.0977311,29.9035858 38.0464826,29.9043776 38.6291717,30.4481638 C39.211204,30.9913368 39.211038,31.878918 38.6319544,32.4193392 Z"></path>
        </g>
    </g>
</svg>