<svg xmlns="http://www.w3.org/2000/svg" width="22" height="17" viewBox="0 0 22 17">
    <path fill="#3897F0" fill-rule="evenodd" d="M18 11h3.778v2H18v4h-2v-4h-4v-2h4V7h2v4zm-8.222 3.697a11.519 11.519 0 0 1-4.421-.672c-1.032.628-2.56 1.113-4.583 1.456.853-1.014 1.475-1.995 1.865-2.942C1.006 11.263 0 9.55 0 7.741 0 3.292 4.159 0 9.289 0c3.954 0 7.33 1.956 8.671 4.889h-4.516v3.667H9.778v6.141z"/>
</svg>
