<svg xmlns="http://www.w3.org/2000/svg" width="17" height="21" viewBox="0 0 17 21">
    <path fill="#FFF" fill-rule="evenodd" d="M6.435 2.29V2a2 2 0 1 1 4 0v.29c2.891.86 5 3.539 5 6.71v3.994l1.185 1.978A2 2 0 0 1 14.905 18H2a2 2 0 0 1-1.707-3.043l1.142-1.869V9a7.003 7.003 0 0 1 5-6.71zm0 16.71h4a2 2 0 0 1-4 0z"/>
</svg>
