<?xml version="1.0" encoding="UTF-8"?>
<svg width="20px" height="20px" viewBox="0 0 20 20" version="1.1" xmlns="http://www.w3.org/2000/svg" xmlns:xlink="http://www.w3.org/1999/xlink">
    <!-- Generator: Sketch 46.2 (44496) - http://www.bohemiancoding.com/sketch -->
    <title>user</title>
    <desc>Created with Sketch.</desc>
    <defs></defs>
    <g id="Page-1" stroke="none" stroke-width="1" fill="none" fill-rule="evenodd">
        <g id="user" fill="#CCCCCC">
            <path d="M2,16 C2,13.790861 3.78883037,12 5.99620271,12 L14.0037973,12 C16.2108391,12 18,13.7953562 18,16 L18,19.0029699 C18,19.5536144 17.5553691,20 16.9991283,20 L3.00087166,20 C2.4481055,20 2,19.5469637 2,19.0029699 L2,16 Z M6,4.009763 C6,1.79523205 7.79535615,0 10,0 C12.209139,0 14,1.7877996 14,4.009763 L14,5.990237 C14,8.20476795 12.2046438,10 10,10 C7.790861,10 6,8.2122004 6,5.990237 L6,4.009763 Z" id="Combined-Shape"></path>
        </g>
    </g>
</svg>